\BOOKMARK [1][]{section*.1}{\376\377\000K\000o\000u\000l\000u\000t\000u\000s}{}% 1
\BOOKMARK [1][]{section*.2}{\376\377\000P\000r\000o\000\040\000g\000r\000a\000d\000u}{}% 2
\BOOKMARK [1][]{section*.3}{\376\377\000T\000y\000\366\000k\000o\000k\000e\000m\000u\000s}{}% 3
\BOOKMARK [1][]{section*.4}{\376\377\000O\000h\000e\000l\000m\000o\000i\000n\000t\000i\000t\000a\000i\000d\000o\000t}{}% 4
\BOOKMARK [1][]{section*.5}{\376\377\000K\000i\000e\000l\000i\000t\000a\000i\000t\000o}{}% 5
\BOOKMARK [1][]{section*.6}{\376\377\000L\000i\000n\000k\000k\000e\000j\000\344}{}% 6
